<?xml version="1.0" encoding="utf-8"?>
<!-- Generator: Adobe Illustrator 22.1.0, SVG Export Plug-In . SVG Version: 6.00 Build 0)  -->
<svg version="1.1" id="Layer_1" xmlns="http://www.w3.org/2000/svg" xmlns:xlink="http://www.w3.org/1999/xlink" x="0px" y="0px"
	 viewBox="0 0 330.3 328.7" style="enable-background:new 0 0 330.3 328.7;" xml:space="preserve">
<style type="text/css">
	.st0{fill:#A7A9AC;}
</style>
<g>
	<g>
		<g id="XMLID_610_">
			<path id="XMLID_611_" class="st0" d="M311,197.7l-19.6-8.1c3.4-16.9,3.3-34,0-50.4l19.7-8.1c7-2.9,10.4-11,7.5-18l-8.9-21.4
				c-2.9-7-11-10.4-18-7.5L272,92.3c-9.3-13.9-21.3-26.1-35.6-35.7l8.1-19.6c2.9-7-0.4-15.1-7.4-18l-21.4-8.9
				c-7-2.9-15.1,0.4-18,7.4l-8.1,19.6c-16.9-3.4-34-3.3-50.4,0l-8.1-19.7c-2.9-7-11-10.4-18-7.5l-21.4,8.9c-7,2.9-10.4,11-7.5,18
				l8.1,19.7c-13.9,9.3-26.1,21.3-35.7,35.6L37,84c-7-2.9-15.1,0.4-18,7.4l-8.9,21.4c-2.9,7,0.4,15.1,7.4,18l19.6,8.1
				c-3.4,16.9-3.3,34,0,50.4l-19.7,8.1c-7,2.9-10.4,11-7.5,18l8.9,21.4c2.9,7,11,10.4,18,7.5l19.7-8.1c9.3,13.9,21.3,26.1,35.6,35.7
				L84,291.5c-2.9,7,0.4,15.1,7.4,18l21.4,8.9c7,2.9,15.1-0.4,18-7.4l8.1-19.6c16.9,3.4,34,3.3,50.4,0l8.1,19.7
				c2.9,7,11,10.4,18,7.5l21.4-8.9c7-2.9,10.4-11,7.5-18l-8.1-19.7c13.9-9.3,26.1-21.3,35.7-35.6l19.6,8.1c7,2.9,15.1-0.4,18-7.4
				l8.9-21.4C321.4,208.6,318,200.6,311,197.7z M140.7,221.3c-31.5-13-46.4-49.1-33.4-80.6s49.1-46.4,80.6-33.4s46.4,49.1,33.4,80.6
				S172.2,234.3,140.7,221.3z"/>
		</g>
		<path d="M326.8,127c2.3-5.6,2.3-11.8,0-17.5l-8.9-21.4c-3.5-8.6-11.8-14.1-21.1-14.1c-3,0-5.9,0.6-8.7,1.7l-13,5.4
			c-7.9-10.6-17.2-19.8-27.7-27.7l5.4-13c4.8-11.6-0.7-25-12.3-29.8l-21.4-8.9c-2.8-1.2-5.7-1.7-8.7-1.7c-9.3,0-17.5,5.5-21.1,14.1
			l-5.4,13c-13-1.9-26.2-1.9-39.2,0l-5.4-13C135.8,5.5,127.5,0,118.2,0c-3,0-5.9,0.6-8.7,1.7l-21.4,8.9c-5.6,2.3-10,6.7-12.4,12.4
			c-2.3,5.6-2.3,11.8,0,17.5l5.4,13c-10.6,7.9-19.8,17.2-27.7,27.7l-13-5.4c-2.8-1.2-5.7-1.7-8.7-1.7c-9.3,0-17.5,5.5-21.1,14.1
			l-8.9,21.4c-4.8,11.6,0.7,25,12.4,29.8l13,5.4c-1.9,13-1.9,26.2,0,39.2l-13,5.4c-11.6,4.8-17.2,18.2-12.4,29.8l8.9,21.4
			c3.5,8.6,11.8,14.1,21.1,14.1c3,0,5.9-0.6,8.7-1.7l13-5.4c7.9,10.6,17.2,19.8,27.7,27.7l-5.4,13c-4.8,11.6,0.7,25,12.3,29.8
			l21.4,8.9c2.8,1.2,5.7,1.7,8.7,1.7c9.3,0,17.5-5.5,21.1-14.1l5.4-13c13,1.9,26.2,1.9,39.2,0l5.4,13c3.5,8.6,11.8,14.1,21.1,14.1
			c3,0,5.9-0.6,8.7-1.7l21.4-8.9c11.6-4.8,17.2-18.2,12.4-29.8l-5.4-13c10.6-7.9,19.8-17.2,27.7-27.7l13,5.4
			c2.8,1.2,5.7,1.7,8.7,1.7l0,0c9.3,0,17.5-5.5,21.1-14.1l8.9-21.4c2.3-5.6,2.3-11.8,0-17.5c-2.3-5.6-6.7-10-12.4-12.4l-13-5.4
			c1.9-13,1.9-26.2,0-39.2l13-5.4C320.1,137,324.5,132.6,326.8,127z M310.1,120.1c-0.5,1.2-1.4,2.1-2.5,2.5l-19.7,8.1
			c-4,1.7-6.3,5.9-5.4,10.1c3.1,15.6,3.1,31.3,0,46.9c-0.8,4.2,1.4,8.5,5.4,10.1l19.6,8.1c1.2,0.5,2.1,1.4,2.5,2.5
			c0.5,1.2,0.5,2.4,0,3.6l-8.9,21.4c-1,2.3-3.8,3.5-6.1,2.5l-19.6-8.1c-4-1.7-8.6-0.3-11,3.3c-8.8,13.2-19.9,24.3-33.1,33.1
			c-3.6,2.4-5,7-3.3,11l8.1,19.7c1,2.4-0.2,5.2-2.5,6.1l-21.4,8.9c-2.4,1-5.2-0.2-6.1-2.5l-8.1-19.7c-1.4-3.4-4.8-5.6-8.4-5.6
			c-0.6,0-1.2,0.1-1.8,0.2c-15.4,3.1-31.5,3.1-46.9,0c-4.2-0.8-8.5,1.4-10.1,5.4l-8.1,19.6c-1,2.3-3.8,3.5-6.1,2.5l-21.4-8.9
			c-2.4-1-3.5-3.7-2.5-6.1l8.1-19.6c1.7-4,0.3-8.6-3.3-11c-13.2-8.8-24.3-19.9-33.1-33.2c-2.4-3.6-7-5-11-3.3l-19.7,8.1
			c-2.4,1-5.2-0.2-6.1-2.5l-8.9-21.4c-1-2.4,0.2-5.2,2.5-6.1l19.7-8.1c4-1.7,6.3-5.9,5.4-10.1c-3.1-15.6-3.1-31.3,0-46.9
			c0.8-4.2-1.4-8.5-5.4-10.1l-19.6-8.1c-2.4-1-3.5-3.7-2.5-6.1L27.7,95c1-2.3,3.8-3.5,6.1-2.5l19.6,8.1c4,1.7,8.6,0.3,11-3.3
			C73.2,84.1,84.3,73,97.5,64.2c3.6-2.4,5-7,3.3-11l-8.1-19.7c-0.5-1.2-0.5-2.4,0-3.6s1.4-2.1,2.5-2.5l21.4-8.9
			c2.4-1,5.2,0.2,6.1,2.5l8.1,19.7c1.7,4,5.9,6.3,10.1,5.4c15.4-3.1,31.5-3.1,46.9,0c4.2,0.8,8.5-1.4,10.1-5.4l8.1-19.6
			c1-2.3,3.8-3.5,6.1-2.5l21.4,8.9c2.4,1,3.5,3.7,2.5,6.1l-8.1,19.6c-1.7,4-0.3,8.6,3.3,11c13.2,8.8,24.3,19.9,33.1,33.2
			c2.4,3.6,7,5,11,3.3l19.7-8.1c2.4-1,5.2,0.2,6.1,2.5l8.9,21.4C310.6,117.6,310.6,118.9,310.1,120.1z"/>
		<path d="M191.4,99c-8.7-3.6-17.8-5.4-27.1-5.4c-28.7,0-54.4,17.1-65.4,43.7c-7.2,17.5-7.2,36.7,0,54.1
			c7.2,17.5,20.8,31.1,38.3,38.3c8.7,3.6,17.8,5.4,27.1,5.4c28.7,0,54.4-17.1,65.4-43.7c7.2-17.5,7.2-36.7,0-54.1
			C222.4,119.8,208.8,106.2,191.4,99z M212.9,184.4c-8.2,19.7-27.3,32.5-48.6,32.5c-6.9,0-13.7-1.4-20.1-4
			c-13-5.4-23.1-15.5-28.5-28.5s-5.4-27.3,0-40.3c8.2-19.7,27.3-32.5,48.6-32.5c6.9,0,13.7,1.4,20.1,4c13,5.4,23.1,15.5,28.5,28.5
			C218.3,157.2,218.3,171.5,212.9,184.4z"/>
	</g>
</g>
</svg>
